<svg xmlns="http://www.w3.org/2000/svg" viewBox="0 0 34 34">
  <g fill-rule="evenodd">
    <path fill-rule="nonzero" d="M12.425 25.61L29.021 9.016a2.5 2.5 0 0 0-3.536-3.536L8.89 22.075c-.08.08-.152.163-.22.251l-.044.06c-.25.348-.405.752-.452 1.177l-.022.191-1.62 4.216 4.215-1.621.191-.022a2.482 2.482 0 0 0 1.488-.716zm.566 1.482c-.568.41-1.22.651-1.887.726L3.919 30.58l2.763-7.185a3.982 3.982 0 0 1 .726-1.887l.044-.115.027.02 1.06-1.061-.024-.025 15.91-15.91a4 4 0 1 1 5.656 5.657l-15.91 15.91-.024-.024-1.06 1.06.02.027-.116.044z"/>
    <path d="M22.657 6.186l1.06-1.06 5.657 5.656-1.06 1.061z"/>
  </g>
</svg>
