<svg xmlns="http://www.w3.org/2000/svg" viewBox="0 0 34 34">
  <path fill-rule="nonzero" d="M1 15.62C1 8.07 8.187 2 17 2c8.814 0 16 6.071 16 13.62 0 7.55-7.186 13.62-16 13.62a18.65 18.65 0 0 1-2.842-.216c-2.365 2.315-5.282 3.287-8.679 2.89-.637-.073-.93-.81-.512-1.286 1.215-1.375 1.99-2.765 2.341-4.173C3.377 23.907.999 19.939.999 15.62H1zm12.29 12.03a.809.809 0 0 1 .728-.236 16.98 16.98 0 0 0 2.981.262c7.978 0 14.4-5.425 14.4-12.057 0-6.63-6.422-12.055-14.4-12.055-7.976 0-14.4 5.425-14.4 12.055 0 3.922 2.264 7.541 6.023 9.8a.774.774 0 0 1 .37.8c-.257 1.444-.873 2.848-1.846 4.215 2.388-.053 4.42-.975 6.144-2.785v.001z"/>
</svg>
