<svg viewBox="0 0 42 42" xmlns="http://www.w3.org/2000/svg">
	<g class="share-action_background" fill-rule="evenodd">
		<g transform="translate(1 1)">
			<circle class="share-action_outline" cx="20" cy="20" r="20"/>
		</g>
		<path class="share-action_shape" d="M18.555 18.04l.007-.02-.007.02zm.055-.04h-.02.02zm-1.76 5.414l-.016-.012.017.012zm-.838 7.24c-.734.536-1.554-.058-1.27-.923l2.075-6.341-5.407-3.91c-.736-.533-.425-1.497.486-1.495l6.672.015 2.048-6.35c.28-.866 1.292-.867 1.571 0L24.235 18l6.673-.015c.909-.002 1.223.96.485 1.495l-5.406 3.91 2.075 6.34c.283.865-.535 1.461-1.27.924l-5.39-3.933-5.39 3.933zm4.623-5.055a1.34 1.34 0 0 1 1.534 0l4.089 2.984-1.575-4.81a1.34 1.34 0 0 1 .474-1.46l4.102-2.966-5.062.011a1.34 1.34 0 0 1-1.242-.902l-1.553-4.817-1.554 4.817a1.34 1.34 0 0 1-1.241.902l-5.062-.011 4.102 2.966c.442.32.643.94.474 1.46l-1.575 4.81 4.089-2.984z" fill-rule="nonzero"/>
	</g>
</svg>
